src/platform/xilinx/video_lib/dump.vcd
$date
   Wed Apr 10 13:45:51 2019
$end
$version
  P.20131013
$end
$timescale
  1ps
$end
$scope module VGA_Test_Pattterns_TB $end
$var wire 1 >" w_Red_Video_TP [2] $end
$var wire 1 ?" w_Red_Video_TP [1] $end
$var wire 1 @" w_Red_Video_TP [0] $end
$var wire 1 A" w_Grn_Video_TP [2] $end
$var wire 1 B" w_Grn_Video_TP [1] $end
$var wire 1 C" w_Grn_Video_TP [0] $end
$var wire 1 D" w_Blu_Video_TP [2] $end
$var wire 1 E" w_Blu_Video_TP [1] $end
$var wire 1 F" w_Blu_Video_TP [0] $end
$var wire 1 5" w_HSync_Start $end
$var wire 1 6" w_VSync_Start $end
$var wire 1 G" w_HSync_TP $end
$var wire 1 H" w_VSync_TP $end
$var reg 1 . r_Clk $end
$scope module VGA_Sync_Pulses_Inst $end
$var wire 1 / i_Clk $end
$var wire 1 5" o_HSync $end
$var wire 1 6" o_VSync $end
$var reg 10 2 o_Col_Count [9:0] $end
$var reg 10 3 o_Row_Count [9:0] $end
$upscope $end
$scope module Test_Pattern_Gen_Inst $end
$var wire 1 4" i_Clk $end
$var wire 1 5 i_Pattern [3] $end
$var wire 1 6 i_Pattern [2] $end
$var wire 1 7 i_Pattern [1] $end
$var wire 1 8 i_Pattern [0] $end
$var wire 1 5" i_HSync $end
$var wire 1 6" i_VSync $end
$var wire 1 ; w_VSync $end
$var wire 1 < w_HSync $end
$var wire 1 = Pattern_Red [47] $end
$var wire 1 > Pattern_Red [46] $end
$var wire 1 ? Pattern_Red [45] $end
$var wire 1 @ Pattern_Red [44] $end
$var wire 1 A Pattern_Red [43] $end
$var wire 1 B Pattern_Red [42] $end
$var wire 1 C Pattern_Red [41] $end
$var wire 1 D Pattern_Red [40] $end
$var wire 1 E Pattern_Red [39] $end
$var wire 1 F Pattern_Red [38] $end
$var wire 1 G Pattern_Red [37] $end
$var wire 1 H Pattern_Red [36] $end
$var wire 1 I Pattern_Red [35] $end
$var wire 1 J Pattern_Red [34] $end
$var wire 1 K Pattern_Red [33] $end
$var wire 1 L Pattern_Red [32] $end
$var wire 1 M Pattern_Red [31] $end
$var wire 1 N Pattern_Red [30] $end
$var wire 1 O Pattern_Red [29] $end
$var wire 1 P Pattern_Red [28] $end
$var wire 1 Q Pattern_Red [27] $end
$var wire 1 R Pattern_Red [26] $end
$var wire 1 S Pattern_Red [25] $end
$var wire 1 T Pattern_Red [24] $end
$var wire 1 U Pattern_Red [23] $end
$var wire 1 V Pattern_Red [22] $end
$var wire 1 W Pattern_Red [21] $end
$var wire 1 X Pattern_Red [20] $end
$var wire 1 Y Pattern_Red [19] $end
$var wire 1 Z Pattern_Red [18] $end
$var wire 1 [ Pattern_Red [17] $end
$var wire 1 \ Pattern_Red [16] $end
$var wire 1 ] Pattern_Red [15] $end
$var wire 1 ^ Pattern_Red [14] $end
$var wire 1 _ Pattern_Red [13] $end
$var wire 1 ` Pattern_Red [12] $end
$var wire 1 a Pattern_Red [11] $end
$var wire 1 b Pattern_Red [10] $end
$var wire 1 c Pattern_Red [9] $end
$var wire 1 d Pattern_Red [8] $end
$var wire 1 e Pattern_Red [7] $end
$var wire 1 f Pattern_Red [6] $end
$var wire 1 g Pattern_Red [5] $end
$var wire 1 h Pattern_Red [4] $end
$var wire 1 i Pattern_Red [3] $end
$var wire 1 j Pattern_Red [2] $end
$var wire 1 k Pattern_Red [1] $end
$var wire 1 l Pattern_Red [0] $end
$var wire 1 m Pattern_Grn [47] $end
$var wire 1 n Pattern_Grn [46] $end
$var wire 1 o Pattern_Grn [45] $end
$var wire 1 p Pattern_Grn [44] $end
$var wire 1 q Pattern_Grn [43] $end
$var wire 1 r Pattern_Grn [42] $end
$var wire 1 s Pattern_Grn [41] $end
$var wire 1 t Pattern_Grn [40] $end
$var wire 1 u Pattern_Grn [39] $end
$var wire 1 v Pattern_Grn [38] $end
$var wire 1 w Pattern_Grn [37] $end
$var wire 1 x Pattern_Grn [36] $end
$var wire 1 y Pattern_Grn [35] $end
$var wire 1 z Pattern_Grn [34] $end
$var wire 1 { Pattern_Grn [33] $end
$var wire 1 | Pattern_Grn [32] $end
$var wire 1 } Pattern_Grn [31] $end
$var wire 1 ~ Pattern_Grn [30] $end
$var wire 1 !! Pattern_Grn [29] $end
$var wire 1 "! Pattern_Grn [28] $end
$var wire 1 #! Pattern_Grn [27] $end
$var wire 1 $! Pattern_Grn [26] $end
$var wire 1 %! Pattern_Grn [25] $end
$var wire 1 &! Pattern_Grn [24] $end
$var wire 1 '! Pattern_Grn [23] $end
$var wire 1 (! Pattern_Grn [22] $end
$var wire 1 )! Pattern_Grn [21] $end
$var wire 1 *! Pattern_Grn [20] $end
$var wire 1 +! Pattern_Grn [19] $end
$var wire 1 ,! Pattern_Grn [18] $end
$var wire 1 -! Pattern_Grn [17] $end
$var wire 1 .! Pattern_Grn [16] $end
$var wire 1 /! Pattern_Grn [15] $end
$var wire 1 0! Pattern_Grn [14] $end
$var wire 1 1! Pattern_Grn [13] $end
$var wire 1 2! Pattern_Grn [12] $end
$var wire 1 3! Pattern_Grn [11] $end
$var wire 1 4! Pattern_Grn [10] $end
$var wire 1 5! Pattern_Grn [9] $end
$var wire 1 6! Pattern_Grn [8] $end
$var wire 1 7! Pattern_Grn [7] $end
$var wire 1 8! Pattern_Grn [6] $end
$var wire 1 9! Pattern_Grn [5] $end
$var wire 1 :! Pattern_Grn [4] $end
$var wire 1 ;! Pattern_Grn [3] $end
$var wire 1 <! Pattern_Grn [2] $end
$var wire 1 =! Pattern_Grn [1] $end
$var wire 1 >! Pattern_Grn [0] $end
$var wire 1 ?! Pattern_Blu [47] $end
$var wire 1 @! Pattern_Blu [46] $end
$var wire 1 A! Pattern_Blu [45] $end
$var wire 1 B! Pattern_Blu [44] $end
$var wire 1 C! Pattern_Blu [43] $end
$var wire 1 D! Pattern_Blu [42] $end
$var wire 1 E! Pattern_Blu [41] $end
$var wire 1 F! Pattern_Blu [40] $end
$var wire 1 G! Pattern_Blu [39] $end
$var wire 1 H! Pattern_Blu [38] $end
$var wire 1 I! Pattern_Blu [37] $end
$var wire 1 J! Pattern_Blu [36] $end
$var wire 1 K! Pattern_Blu [35] $end
$var wire 1 L! Pattern_Blu [34] $end
$var wire 1 M! Pattern_Blu [33] $end
$var wire 1 N! Pattern_Blu [32] $end
$var wire 1 O! Pattern_Blu [31] $end
$var wire 1 P! Pattern_Blu [30] $end
$var wire 1 Q! Pattern_Blu [29] $end
$var wire 1 R! Pattern_Blu [28] $end
$var wire 1 S! Pattern_Blu [27] $end
$var wire 1 T! Pattern_Blu [26] $end
$var wire 1 U! Pattern_Blu [25] $end
$var wire 1 V! Pattern_Blu [24] $end
$var wire 1 W! Pattern_Blu [23] $end
$var wire 1 X! Pattern_Blu [22] $end
$var wire 1 Y! Pattern_Blu [21] $end
$var wire 1 Z! Pattern_Blu [20] $end
$var wire 1 [! Pattern_Blu [19] $end
$var wire 1 \! Pattern_Blu [18] $end
$var wire 1 ]! Pattern_Blu [17] $end
$var wire 1 ^! Pattern_Blu [16] $end
$var wire 1 _! Pattern_Blu [15] $end
$var wire 1 `! Pattern_Blu [14] $end
$var wire 1 a! Pattern_Blu [13] $end
$var wire 1 b! Pattern_Blu [12] $end
$var wire 1 c! Pattern_Blu [11] $end
$var wire 1 d! Pattern_Blu [10] $end
$var wire 1 e! Pattern_Blu [9] $end
$var wire 1 f! Pattern_Blu [8] $end
$var wire 1 g! Pattern_Blu [7] $end
$var wire 1 h! Pattern_Blu [6] $end
$var wire 1 i! Pattern_Blu [5] $end
$var wire 1 j! Pattern_Blu [4] $end
$var wire 1 k! Pattern_Blu [3] $end
$var wire 1 l! Pattern_Blu [2] $end
$var wire 1 m! Pattern_Blu [1] $end
$var wire 1 n! Pattern_Blu [0] $end
$var wire 1 o! w_Col_Count [9] $end
$var wire 1 p! w_Col_Count [8] $end
$var wire 1 q! w_Col_Count [7] $end
$var wire 1 r! w_Col_Count [6] $end
$var wire 1 s! w_Col_Count [5] $end
$var wire 1 t! w_Col_Count [4] $end
$var wire 1 u! w_Col_Count [3] $end
$var wire 1 v! w_Col_Count [2] $end
$var wire 1 w! w_Col_Count [1] $end
$var wire 1 x! w_Col_Count [0] $end
$var wire 1 y! w_Row_Count [9] $end
$var wire 1 z! w_Row_Count [8] $end
$var wire 1 {! w_Row_Count [7] $end
$var wire 1 |! w_Row_Count [6] $end
$var wire 1 }! w_Row_Count [5] $end
$var wire 1 ~! w_Row_Count [4] $end
$var wire 1 !" w_Row_Count [3] $end
$var wire 1 "" w_Row_Count [2] $end
$var wire 1 #" w_Row_Count [1] $end
$var wire 1 $" w_Row_Count [0] $end
$var wire 1 %" w_Bar_Width [6] $end
$var wire 1 &" w_Bar_Width [5] $end
$var wire 1 '" w_Bar_Width [4] $end
$var wire 1 (" w_Bar_Width [3] $end
$var wire 1 )" w_Bar_Width [2] $end
$var wire 1 *" w_Bar_Width [1] $end
$var wire 1 +" w_Bar_Width [0] $end
$var wire 1 ," w_Bar_Select [2] $end
$var wire 1 -" w_Bar_Select [1] $end
$var wire 1 ." w_Bar_Select [0] $end
$var reg 1 /" o_HSync $end
$var reg 1 0" o_VSync $end
$var reg 3 1" o_Red_Video [2:0] $end
$var reg 3 2" o_Grn_Video [2:0] $end
$var reg 3 3" o_Blu_Video [2:0] $end
$scope module UUT $end
$var wire 1 4" i_Clk $end
$var wire 1 5" i_HSync $end
$var wire 1 6" i_VSync $end
$var wire 1 7" w_Frame_Start $end
$var reg 1 8" o_HSync $end
$var reg 1 9" o_VSync $end
$var reg 10 :" o_Col_Count [9:0] $end
$var reg 10 ;" o_Row_Count [9:0] $end
$upscope $end
$upscope $end
$scope module vga_logger $end
$var wire 1 <" pixel_clk $end
$var wire 1 =" output_enable $end
$var wire 1 >" red [2] $end
$var wire 1 ?" red [1] $end
$var wire 1 @" red [0] $end
$var wire 1 A" green [2] $end
$var wire 1 B" green [1] $end
$var wire 1 C" green [0] $end
$var wire 1 D" blue [2] $end
$var wire 1 E" blue [1] $end
$var wire 1 F" blue [0] $end
$var wire 1 G" hsync $end
$var wire 1 H" vsync $end
$var integer 32 I" rgb_fd $end
$upscope $end
$upscope $end
$enddefinitions $end
#0
$dumpvars
x@"
x?"
x>"
xC"
xB"
xA"
0/
04"
0<"
0.
xF"
xE"
xD"
15"
16"
18
07
16
05
0G"
0H"
1="
b0 2
b0 3
0/"
00"
bx 1"
bx 2"
bx 3"
0;
0<
zl
zk
zj
zi
zh
zg
zf
ze
zd
zc
zb
za
z`
z_
z^
z]
z\
z[
zZ
zY
zX
zW
zV
zU
zT
zS
zR
1Q
1P
1O
0N
0M
0L
0K
0J
0I
0H
0G
0F
0E
0D
0C
1B
1A
1@
0?
0>
0=
z>!
z=!
z<!
z;!
z:!
z9!
z8!
z7!
z6!
z5!
z4!
z3!
z2!
z1!
z0!
z/!
z.!
z-!
z,!
z+!
z*!
z)!
z(!
z'!
z&!
z%!
z$!
1#!
1"!
1!!
0~
0}
0|
0{
0z
0y
0x
0w
0v
1u
1t
1s
0r
0q
0p
0o
0n
0m
zn!
zm!
zl!
zk!
zj!
zi!
zh!
zg!
zf!
ze!
zd!
zc!
zb!
za!
z`!
z_!
z^!
z]!
z\!
z[!
zZ!
zY!
zX!
zW!
zV!
zU!
zT!
1S!
1R!
1Q!
0P!
0O!
0N!
0M!
0L!
0K!
1J!
1I!
1H!
0G!
0F!
0E!
0D!
0C!
0B!
0A!
0@!
0?!
0x!
0w!
0v!
0u!
0t!
0s!
0r!
0q!
0p!
0o!
0$"
0#"
0""
0!"
0~!
0}!
0|!
0{!
0z!
0y!
0+"
0*"
1)"
0("
0'"
1&"
0%"
0."
0-"
0,"
08"
09"
b0 :"
b0 ;"
17"
b11111111111111111011000111100000 I"
$end
#81380
0@"
0?"
0>"
0C"
0B"
0A"
1/
14"
1<"
1.
0F"
0E"
0D"
b1 2
b0 1"
b0 2"
b0 3"
1;
1<
18"
19"
07"
#162760
0/
04"
0<"
0.
#244140
1/
14"
1<"
1.
1G"
1H"
b10 2
1/"
10"
1x!
b1 :"
#325520
0/
04"
0<"
0.
#406900
1/
14"
1<"
1.
b11 2
0x!
1w!
b10 :"
#488280
0/
04"
0<"
0.
#569660
1/
14"
1<"
1.
b100 2
1x!
b11 :"
#651040
0/
04"
0<"
0.
#732420
1/
14"
1<"
1.
b101 2
0x!
0w!
1v!
b100 :"
#813800
0/
04"
0<"
0.
#895180
1/
14"
1<"
1.
b110 2
1x!
b101 :"
#976560
0/
04"
0<"
0.
#1057940
1/
14"
1<"
1.
b111 2
0x!
1w!
b110 :"
#1139320
0/
04"
0<"
0.
#1220700
1/
14"
1<"
1.
b1000 2
1x!
b111 :"
#1302080
0/
04"
0<"
0.
#1383460
1/
14"
1<"
1.
b1001 2
0x!
0w!
0v!
1u!
b1000 :"
#1464840
0/
04"
0<"
0.
#1546220
1/
14"
1<"
1.
b1010 2
1x!
b1001 :"
#1627600
0/
04"
0<"
0.
#1708980
1/
14"
1<"
1.
b1011 2
0x!
1w!
b1010 :"
#1790360
0/
04"
0<"
0.
#1871740
1/
14"
1<"
1.
b1100 2
1x!
b1011 :"
#1953120
0/
04"
0<"
0.
#2034500
1/
14"
1<"
1.
b1101 2
0x!
0w!
1v!
b1100 :"
#2115880
0/
04"
0<"
0.
#2197260
1/
14"
1<"
1.
b1110 2
1x!
b1101 :"
#2278640
0/
04"
0<"
0.
#2360020
1/
14"
1<"
1.
b1111 2
0x!
1w!
b1110 :"
#2441400
0/
04"
0<"
0.
#2522780
1/
14"
1<"
1.
b10000 2
1x!
b1111 :"
#2604160
0/
04"
0<"
0.
#2685540
1/
14"
1<"
1.
b10001 2
0x!
0w!
0v!
0u!
1t!
b10000 :"
#2766920
0/
04"
0<"
0.
#2848300
1/
14"
1<"
1.
b10010 2
1x!
b10001 :"
#2929680
0/
04"
0<"
0.
#3011060
1/
14"
1<"
1.
b10011 2
0x!
1w!
b10010 :"
#3092440
0/
04"
0<"
0.
#3173820
1/
14"
1<"
1.
b10100 2
1x!
b10011 :"
#3255200
0/
04"
0<"
0.
#3336580
1/
14"
1<"
1.
b10101 2
0x!
0w!
1v!
b10100 :"
#3417960
0/
04"
0<"
0.
#3499340
1/
14"
1<"
1.
b10110 2
1x!
b10101 :"
#3580720
0/
04"
0<"
0.
#3662100
1/
14"
1<"
1.
b10111 2
0x!
1w!
b10110 :"
#3743480
0/
04"
0<"
0.
#3824860
1/
14"
1<"
1.
b11000 2
1x!
b10111 :"
#3906240
0/
04"
0<"
0.
#3987620
1/
14"
1<"
1.
b11001 2
0x!
0w!
0v!
1u!
b11000 :"
#4069000
0/
04"
0<"
0.
#4150380
1/
14"
1<"
1.
b11010 2
1x!
b11001 :"
#4231760
0/
04"
0<"
0.
#4313140
1/
14"
1<"
1.
b11011 2
0x!
1w!
b11010 :"
#4394520
0/
04"
0<"
0.
#4475900
1/
14"
1<"
1.
b11100 2
1x!
b11011 :"
#4557280
0/
04"
0<"
0.
#4638660
1/
14"
1<"
1.
b11101 2
0x!
0w!
1v!
b11100 :"
#4720040
0/
04"
0<"
0.
#4801420
1/
14"
1<"
1.
b11110 2
1x!
b11101 :"
#4882800
0/
04"
0<"
0.
#4964180
1/
14"
1<"
1.
b11111 2
0x!
1w!
b11110 :"
#5045560
0/
04"
0<"
0.
#5126940
1/
14"
1<"
1.
b100000 2
1x!
b11111 :"
#5208320
0/
04"
0<"
0.
#5289700
1/
14"
1<"
1.
b100001 2
1K
1J
1I
1{
1z
1y
1M!
1L!
1K!
0x!
0w!
0v!
0u!
0t!
1s!
b100000 :"
#5371080
0/
04"
0<"
0.
#5452460
1/
14"
1<"
1.
b100010 2
1x!
b100001 :"
#5533840
0/
04"
0<"
0.
#5615220
1/
14"
1<"
1.
b100011 2
0x!
1w!
b100010 :"
#5696600
0/
04"
0<"
0.
#5777980
1/
14"
1<"
1.
b100100 2
1x!
b100011 :"
#5859360
0/
04"
0<"
0.
#5940740
1/
14"
1<"
1.
b100101 2
1P!
1O!
1N!
0x!
0w!
1v!
1."
b100100 :"
#6022120
0/
04"
0<"
0.
#6103500
1/
14"
1<"
1.
1F"
1E"
1D"
b100110 2
b111 3"
1x!
b100101 :"
#6184880
0/
04"
0<"
0.
#6266260
1/
14"
1<"
1.
b100111 2
0x!
1w!
b100110 :"
#6347640
0/
04"
0<"
0.
#6429020
1/
14"
1<"
1.
b101000 2
1x!
b100111 :"
#6510400
0/
04"
0<"
0.
#6591780
1/
14"
1<"
1.
b101001 2
0x!
0w!
0v!
1u!
b101000 :"
#6673160
0/
04"
0<"
0.
#6754540
1/
14"
1<"
1.
b101010 2
1x!
b101001 :"
#6835920
0/
04"
0<"
0.
#6917300
1/
14"
1<"
1.
b101011 2
0x!
1w!
b101010 :"
#6998680
0/
04"
0<"
0.
#7080060
1/
14"
1<"
1.
b101100 2
1x!
b101011 :"
#7161440
0/
04"
0<"
0.
#7242820
1/
14"
1<"
1.
b101101 2
0x!
0w!
1v!
b101100 :"
#7324200
0/
04"
0<"
0.
#7405580
1/
14"
1<"
1.
b101110 2
1x!
b101101 :"
#7486960
0/
04"
0<"
0.
#7568340
1/
14"
1<"
1.
b101111 2
0x!
1w!
b101110 :"
#7649720
0/
04"
0<"
0.
#7731100
1/
14"
1<"
1.
b110000 2
1x!
b101111 :"
#7812480
0/
04"
0<"
0.
#7893860
1/
14"
1<"
1.
b110001 2
0x!
0w!
0v!
0u!
1t!
b110000 :"
#7975240
0/
04"
0<"
0.
#8056620
1/
14"
1<"
1.
b110010 2
1x!
b110001 :"
#8138000
0/
04"
0<"
0.
#8219380
1/
14"
1<"
1.
b110011 2
0x!
1w!
b110010 :"
#8300760
0/
04"
0<"
0.
#8382140
1/
14"
1<"
1.
b110100 2
1x!
b110011 :"
#8463520
0/
04"
0<"
0.
#8544900
1/
14"
1<"
1.
b110101 2
0x!
0w!
1v!
b110100 :"
#8626280
0/
04"
0<"
0.
#8707660
1/
14"
1<"
1.
b110110 2
1x!
b110101 :"
#8789040
0/
04"
0<"
0.
#8870420
1/
14"
1<"
1.
b110111 2
0x!
1w!
b110110 :"
#8951800
0/
04"
0<"
0.
#9033180
1/
14"
1<"
1.
b111000 2
1x!
b110111 :"
#9114560
0/
04"
0<"
0.
#9195940
1/
14"
1<"
1.
b111001 2
0x!
0w!
0v!
1u!
b111000 :"
#9277320
0/
04"
0<"
0.
#9358700
1/
14"
1<"
1.
b111010 2
1x!
b111001 :"
#9440080
0/
04"
0<"
0.
#9521460
1/
14"
1<"
1.
b111011 2
0x!
1w!
b111010 :"
#9602840
0/
04"
0<"
0.
#9684220
1/
14"
1<"
1.
b111100 2
1x!
b111011 :"
#9765600
0/
04"
0<"
0.
#9846980
1/
14"
1<"
1.
b111101 2
0x!
0w!
1v!
b111100 :"
#9928360
0/
04"
0<"
0.
#10009740
1/
14"
1<"
1.
b111110 2
1x!
b111101 :"
#10091120
0/
04"
0<"
0.
#10172500
1/
14"
1<"
1.
b111111 2
0x!
1w!
b111110 :"
#10253880
0/
04"
0<"
0.
#10335260
1/
14"
1<"
1.
b1000000 2
1x!
b111111 :"
#10416640
0/
04"
0<"
0.
#10498020
1/
14"
1<"
1.
b1000001 2
0K
0J
0I
0{
0z
0y
0M!
0L!
0K!
0x!
0w!
0v!
0u!
0t!
0s!
1r!
b1000000 :"
#10579400
0/
04"
0<"
0.
#10660780
1/
14"
1<"
1.
b1000010 2
1x!
b1000001 :"
#10742160
0/
04"
0<"
0.
#10823540
1/
14"
1<"
1.
b1000011 2
0x!
1w!
b1000010 :"
#10904920
0/
04"
0<"
0.
#10986300
1/
14"
1<"
1.
b1000100 2
1x!
b1000011 :"
#11067680
0/
04"
0<"
0.
#11149060
1/
14"
1<"
1.
b1000101 2
0x!
0w!
1v!
b1000100 :"
#11230440
0/
04"
0<"
0.
#11311820
1/
14"
1<"
1.
b1000110 2
1x!
b1000101 :"
#11393200
0/
04"
0<"
0.
#11474580
1/
14"
1<"
1.
b1000111 2
0x!
1w!
b1000110 :"
#11555960
0/
04"
0<"
0.
#11637340
1/
14"
1<"
1.
b1001000 2
1x!
b1000111 :"
#11718720
0/
04"
0<"
0.
#11800100
1/
14"
1<"
1.
b1001001 2
1~
1}
1|
0P!
0O!
0N!
0x!
0w!
0v!
1u!
0."
1-"
b1001000 :"
#11881480
0/
04"
0<"
0.
#11962860
1C"
1B"
1A"
1/
14"
1<"
1.
0F"
0E"
0D"
b1001010 2
b111 2"
b0 3"
1x!
b1001001 :"
#12044240
0/
04"
0<"
0.
#12125620
1/
14"
1<"
1.
b1001011 2
0x!
1w!
b1001010 :"
#12207000
0/
04"
0<"
0.
#12288380
1/
14"
1<"
1.
b1001100 2
1x!
b1001011 :"
#12369760
0/
04"
0<"
0.
#12451140
1/
14"
1<"
1.
b1001101 2
0x!
0w!
1v!
b1001100 :"
#12532520
0/
04"
0<"
0.
#12613900
1/
14"
1<"
1.
b1001110 2
1x!
b1001101 :"
#12695280
0/
04"
0<"
0.
#12776660
1/
14"
1<"
1.
b1001111 2
0x!
1w!
b1001110 :"
#12858040
0/
04"
0<"
0.
#12939420
1/
14"
1<"
1.
b1010000 2
1x!
b1001111 :"
#13020800
0/
04"
0<"
0.
#13102180
1/
14"
1<"
1.
b1010001 2
0x!
0w!
0v!
0u!
1t!
b1010000 :"
#13183560
0/
04"
0<"
0.
#13264940
1/
14"
1<"
1.
b1010010 2
1x!
b1010001 :"
#13346320
0/
04"
0<"
0.
#13427700
1/
14"
1<"
1.
b1010011 2
0x!
1w!
b1010010 :"
#13509080
0/
04"
0<"
0.
#13590460
1/
14"
1<"
1.
b1010100 2
1x!
b1010011 :"
#13671840
0/
04"
0<"
0.
#13753220
1/
14"
1<"
1.
b1010101 2
0x!
0w!
1v!
b1010100 :"
#13834600
0/
04"
0<"
0.
#13915980
1/
14"
1<"
1.
b1010110 2
1x!
b1010101 :"
#13997360
0/
04"
0<"
0.
#14078740
1/
14"
1<"
1.
b1010111 2
0x!
1w!
b1010110 :"
#14160120
0/
04"
0<"
0.
#14241500
1/
14"
1<"
1.
b1011000 2
1x!
b1010111 :"
#14322880
0/
04"
0<"
0.
#14404260
1/
14"
1<"
1.
b1011001 2
0x!
0w!
0v!
1u!
b1011000 :"
#14485640
0/
04"
0<"
0.
#14567020
1/
14"
1<"
1.
b1011010 2
1x!
b1011001 :"
#14648400
0/
04"
0<"
0.
#14729780
1/
14"
1<"
1.
b1011011 2
0x!
1w!
b1011010 :"
#14811160
0/
04"
0<"
0.
#14892540
1/
14"
1<"
1.
b1011100 2
1x!
b1011011 :"
#14973920
0/
04"
0<"
0.
#15055300
1/
14"
1<"
1.
b1011101 2
0x!
0w!
1v!
b1011100 :"
#15136680
0/
04"
0<"
0.
#15218060
1/
14"
1<"
1.
b1011110 2
1x!
b1011101 :"
#15299440
0/
04"
0<"
0.
#15380820
1/
14"
1<"
1.
b1011111 2
0x!
1w!
b1011110 :"
#15462200
0/
04"
0<"
0.
#15543580
1/
14"
1<"
1.
b1100000 2
1x!
b1011111 :"
#15624960
0/
04"
0<"
0.
#15706340
1/
14"
1<"
1.
b1100001 2
1K
1J
1I
1{
1z
1y
1M!
1L!
1K!
0x!
0w!
0v!
0u!
0t!
1s!
b1100000 :"
#15787720
0/
04"
0<"
0.
#15869100
1/
14"
1<"
1.
b1100010 2
1x!
b1100001 :"
#15950480
0/
04"
0<"
0.
#16031860
1/
14"
1<"
1.
b1100011 2
0x!
1w!
b1100010 :"
#16113240
0/
04"
0<"
0.
#16194620
1/
14"
1<"
1.
b1100100 2
1x!
b1100011 :"
#16276000
0/
04"
0<"
0.
#16357380
1/
14"
1<"
1.
b1100101 2
0x!
0w!
1v!
b1100100 :"
#16438760
0/
04"
0<"
0.
#16520140
1/
14"
1<"
1.
b1100110 2
1x!
b1100101 :"
#16601520
0/
04"
0<"
0.
#16682900
1/
14"
1<"
1.
b1100111 2
0x!
1w!
b1100110 :"
#16764280
0/
04"
0<"
0.
#16845660
1/
14"
1<"
1.
b1101000 2
1x!
b1100111 :"
#16927040
0/
04"
0<"
0.
#17008420
1/
14"
1<"
1.
b1101001 2
0x!
0w!
0v!
1u!
b1101000 :"
#17089800
0/
04"
0<"
0.
#17171180
1/
14"
1<"
1.
b1101010 2
1x!
b1101001 :"
#17252560
0/
04"
0<"
0.
#17333940
1/
14"
1<"
1.
b1101011 2
0x!
1w!
b1101010 :"
#17415320
0/
04"
0<"
0.
#17496700
1/
14"
1<"
1.
b1101100 2
1x!
b1101011 :"
#17578080
0/
04"
0<"
0.
#17659460
1/
14"
1<"
1.
b1101101 2
1P!
1O!
1N!
0x!
0w!
1v!
1."
b1101100 :"
#17740840
0/
04"
0<"
0.
#17822220
1/
14"
1<"
1.
1F"
1E"
1D"
b1101110 2
b111 3"
1x!
b1101101 :"
#17903600
0/
04"
0<"
0.
#17984980
1/
14"
1<"
1.
b1101111 2
0x!
1w!
b1101110 :"
#18066360
0/
04"
0<"
0.
#18147740
1/
14"
1<"
1.
b1110000 2
1x!
b1101111 :"
#18229120
0/
04"
0<"
0.
#18310500
1/
14"
1<"
1.
b1110001 2
0x!
0w!
0v!
0u!
1t!
b1110000 :"
#18391880
0/
04"
0<"
0.
#18473260
1/
14"
1<"
1.
b1110010 2
1x!
b1110001 :"
#18554640
0/
04"
0<"
0.
#18636020
1/
14"
1<"
1.
b1110011 2
0x!
1w!
b1110010 :"
#18717400
0/
04"
0<"
0.
#18798780
1/
14"
1<"
1.
b1110100 2
1x!
b1110011 :"
#18880160
0/
04"
0<"
0.
#18961540
1/
14"
1<"
1.
b1110101 2
0x!
0w!
1v!
b1110100 :"
#19042920
0/
04"
0<"
0.
#19124300
1/
14"
1<"
1.
b1110110 2
1x!
b1110101 :"
#19205680
0/
04"
0<"
0.
#19287060
1/
14"
1<"
1.
b1110111 2
0x!
1w!
b1110110 :"
#19368440
0/
04"
0<"
0.
#19449820
1/
14"
1<"
1.
b1111000 2
1x!
b1110111 :"
#19531200
0/
04"
0<"
0.
#19612580
1/
14"
1<"
1.
b1111001 2
0x!
0w!
0v!
1u!
b1111000 :"
#19693960
0/
04"
0<"
0.
#19775340
1/
14"
1<"
1.
b1111010 2
1x!
b1111001 :"
#19856720
0/
04"
0<"
0.
#19938100
1/
14"
1<"
1.
b1111011 2
0x!
1w!
b1111010 :"
#20019480
0/
04"
0<"
0.
#20100860
1/
14"
1<"
1.
b1111100 2
1x!
b1111011 :"
#20182240
0/
04"
0<"
0.
#20263620
1/
14"
1<"
1.
b1111101 2
0x!
0w!
1v!
b1111100 :"
#20345000
0/
04"
0<"
0.
#20426380
1/
14"
1<"
1.
b1111110 2
1x!
b1111101 :"
#20507760
0/
04"
0<"
0.
#20589140
1/
14"
1<"
1.
b1111111 2
0x!
1w!
b1111110 :"
#20670520
0/
04"
0<"
0.
#20751900
1/
14"
1<"
1.
b10000000 2
1x!
b1111111 :"
#20833280
0/
04"
0<"
0.
#20914660
1/
14"
1<"
1.
b10000001 2
0K
0J
0I
0{
0z
0y
0M!
0L!
0K!
0x!
0w!
0v!
0u!
0t!
0s!
0r!
1q!
b10000000 :"
#20996040
0/
04"
0<"
0.
#21077420
1/
14"
1<"
1.
b10000010 2
1x!
b10000001 :"
#21158800
0/
04"
0<"
0.
#21240180
1/
14"
1<"
1.
b10000011 2
0x!
1w!
b10000010 :"
#21321560
0/
04"
0<"
0.
#21402940
1/
14"
1<"
1.
b10000100 2
1x!
b10000011 :"
#21484320
0/
04"
0<"
0.
#21565700
1/
14"
1<"
1.
b10000101 2
0x!
0w!
1v!
b10000100 :"
#21647080
0/
04"
0<"
0.
#21728460
1/
14"
1<"
1.
b10000110 2
1x!
b10000101 :"
#21809840
0/
04"
0<"
0.
#21891220
1/
14"
1<"
1.
b10000111 2
0x!
1w!
b10000110 :"
#21972600
0/
04"
0<"
0.
#22053980
1/
14"
1<"
1.
b10001000 2
1x!
b10000111 :"
#22135360
0/
04"
0<"
0.
#22216740
1/
14"
1<"
1.
b10001001 2
0x!
0w!
0v!
1u!
b10001000 :"
#22298120
0/
04"
0<"
0.
#22379500
1/
14"
1<"
1.
b10001010 2
1x!
b10001001 :"
#22460880
0/
04"
0<"
0.
#22542260
1/
14"
1<"
1.
b10001011 2
0x!
1w!
b10001010 :"
#22623640
0/
04"
0<"
0.
#22705020
1/
14"
1<"
1.
b10001100 2
1x!
b10001011 :"
#22786400
0/
04"
0<"
0.
#22867780
1/
14"
1<"
1.
b10001101 2
0x!
0w!
1v!
b10001100 :"
#22949160
0/
04"
0<"
0.
#23030540
1/
14"
1<"
1.
b10001110 2
1x!
b10001101 :"
#23111920
0/
04"
0<"
0.
#23193300
1/
14"
1<"
1.
b10001111 2
0x!
1w!
b10001110 :"
#23274680
0/
04"
0<"
0.
#23356060
1/
14"
1<"
1.
b10010000 2
1x!
b10001111 :"
#23437440
0/
04"
0<"
0.
#23518820
1/
14"
1<"
1.
b10010001 2
1N
1M
1L
0~
0}
0|
0P!
0O!
0N!
0x!
0w!
0v!
0u!
1t!
0."
0-"
1,"
b10010000 :"
#23600200
0/
04"
0<"
0.
#23681580
1@"
1?"
1>"
0C"
0B"
0A"
1/
14"
1<"
1.
0F"
0E"
0D"
b10010010 2
b111 1"
b0 2"
b0 3"
1x!
b10010001 :"
#23762960
0/
04"
0<"
0.
#23844340
1/
14"
1<"
1.
b10010011 2
0x!
1w!
b10010010 :"
#23925720
0/
04"
0<"
0.
#24007100
1/
14"
1<"
1.
b10010100 2
1x!
b10010011 :"
#24088480
0/
04"
0<"
0.
